<?xml version="1.0" encoding="UTF-8" standalone="no"?>
<!-- Created with Inkscape (http://www.inkscape.org/) -->

<svg
   xmlns:dc="http://purl.org/dc/elements/1.1/"
   xmlns:cc="http://creativecommons.org/ns#"
   xmlns:rdf="http://www.w3.org/1999/02/22-rdf-syntax-ns#"
   xmlns:svg="http://www.w3.org/2000/svg"
   xmlns="http://www.w3.org/2000/svg"
   xmlns:sodipodi="http://sodipodi.sourceforge.net/DTD/sodipodi-0.dtd"
   xmlns:inkscape="http://www.inkscape.org/namespaces/inkscape"
   width="210mm"
   height="297mm"
   id="svg2"
   version="1.1"
   inkscape:version="0.48.1 r9760"
   sodipodi:docname="c-base.svg">
  <defs
     id="defs4">
    <filter
       inkscape:collect="always"
       id="filter3909">
      <feGaussianBlur
         inkscape:collect="always"
         stdDeviation="0.69336297"
         id="feGaussianBlur3911" />
    </filter>
    <filter
       inkscape:collect="always"
       id="filter3913">
      <feGaussianBlur
         inkscape:collect="always"
         stdDeviation="0.29715556"
         id="feGaussianBlur3915" />
    </filter>
  </defs>
  <sodipodi:namedview
     id="base"
     pagecolor="#ffffff"
     bordercolor="#666666"
     borderopacity="1.0"
     inkscape:pageopacity="0.0"
     inkscape:pageshadow="2"
     inkscape:zoom="2.3330371"
     inkscape:cx="127.20319"
     inkscape:cy="889.72127"
     inkscape:document-units="px"
     inkscape:current-layer="layer1"
     showgrid="false"
     inkscape:window-width="978"
     inkscape:window-height="715"
     inkscape:window-x="-1"
     inkscape:window-y="24"
     inkscape:window-maximized="0" />
  <metadata
     id="metadata7">
    <rdf:RDF>
      <cc:Work
         rdf:about="">
        <dc:format>image/svg+xml</dc:format>
        <dc:type
           rdf:resource="http://purl.org/dc/dcmitype/StillImage" />
        <dc:title></dc:title>
      </cc:Work>
    </rdf:RDF>
  </metadata>
  <g
     inkscape:label="Ebene 1"
     inkscape:groupmode="layer"
     id="layer1">
    <path
       style="font-size:medium;font-style:normal;font-variant:normal;font-weight:normal;font-stretch:normal;text-indent:0;text-align:start;text-decoration:none;line-height:normal;letter-spacing:normal;word-spacing:normal;text-transform:none;direction:ltr;block-progression:tb;writing-mode:lr-tb;text-anchor:start;baseline-shift:baseline;color:#000000;fill:#464646;fill-opacity:0.46643108;stroke:none;stroke-width:10.0451088;marker:none;visibility:visible;display:inline;overflow:visible;filter:url(#filter3913);enable-background:accumulate;font-family:Sans;-inkscape-font-specification:Sans"
       d="m 131.4375,110.1875 c -19.94853,0 -36.46875,15.61906 -36.46875,35.03125 0,19.41219 16.52022,35.03125 36.46875,35.03125 19.94853,0 36.4375,-15.61906 36.4375,-35.03125 0,-19.41219 -16.48897,-35.03125 -36.4375,-35.03125 z m 0,10.0625 c 14.76651,0 26.40625,11.24386 26.40625,24.96875 0,13.72489 -11.63974,24.96875 -26.40625,24.96875 -14.76651,0 -26.40625,-11.24386 -26.40625,-24.96875 0,-13.72489 11.63974,-24.96875 26.40625,-24.96875 z"
       id="path2985"
       inkscape:connector-curvature="0"
       transform="matrix(0.99454969,0,0,1.0367274,0.60204022,-6.6478029)"
       inkscape:export-xdpi="243.48"
       inkscape:export-ydpi="243.48" />
    <path
       sodipodi:type="arc"
       style="fill:none;stroke:#464646;stroke-width:19.89325475000000054;stroke-linejoin:round;stroke-miterlimit:4;stroke-opacity:0.46643108000000000;stroke-dasharray:none;filter:url(#filter3909)"
       id="path2985-6"
       sodipodi:cx="131.42857"
       sodipodi:cy="145.21933"
       sodipodi:rx="31.428572"
       sodipodi:ry="30"
       d="m 162.85715,145.21933 a 31.428572,30 0 1 1 -62.85715,0 31.428572,30 0 1 1 62.85715,0 z"
       transform="matrix(0.49727484,0,0,0.51836369,66.003625,68.227526)"
       inkscape:export-xdpi="100"
       inkscape:export-ydpi="100" />
  </g>
</svg>
